…
## Building interaction networks

The package provides additional functionality for constructing and manipulating interaction networks, based on statements retrieved from INDRA DB REST queries. A simple list of edges can be constructed through `IDBquery()`, which creates a data frame encapsulating the output of [`indra.sources.indra_db_rest.api.get_statements`](https://indra.readthedocs.io/en/latest/modules/sources/indra_db_rest/index.html#module-indra.sources.indra_db_rest.api) for all entities with HGNC mappings.

``` R
IDBquery( "SIK3" )
# # A tibble: 32 x 5
#    Hash               Activity        EvCnt Src   Trgt  
#    <chr>              <chr>           <int> <chr> <chr> 
#  1 7430532589474606   Phosphorylation     9 SIK3  PER2  
#  2 -21145377478765295 Phosphorylation     8 SIK3  HDAC4 
#  3 -260602555584320   Inhibition          4 SIK3  CRTC2 
#  4 12365252834703035  Activation          3 SIK3  STK11 
#  5 22779893853211724  Activation          3 SIK3  SIK3  
#  6 31422389291390976  Activation          3 SIK3  HDAC4 
#  7 -34515906559717663 DecreaseAmount      2 SIK3  CDKN1B
#  8 -2453043612469986  Inhibition          2 SIK3  HDAC4 
#  9 13139187518202040  Inhibition          2 SIK3  PER2  
# 10 22345317015989990  DecreaseAmount      2 SIK3  CDKN1A
# # … with 22 more rows

IDBquery( object="KLF4" )
# # A tibble: 621 x 5
#    Hash               Activity       EvCnt Src    Trgt 
#    <chr>              <chr>          <int> <chr>  <chr>
#  1 34237034834082983  Activation        19 MIR145 KLF4 
#  2 -1893896626253041  Acetylation       17 EP300  KLF4 
#  3 -4171272971594532  IncreaseAmount    15 KLF4   KLF4 
#  4 -2531422713809198  Activation        15 KLF4   KLF4 
#  5 1490195882280611   Activation        15 STAT3  KLF4 
#  6 17660102120847788  Activation        15 TP53   KLF4 
#  7 -23862745989616505 Inhibition        14 MIR145 KLF4 
#  8 -21174815692184579 DecreaseAmount    13 MIR7-1 KLF4 
#  9 23129435055012331  Activation        13 NANOG  KLF4 
# 10 -16399785507382445 DecreaseAmount    12 KLF4   KLF4 
# # … with 611 more rows
```
